[gd_resource type="GradientTexture2D" load_steps=2 format=3 uid="uid://btw2s815gglht"]

[sub_resource type="Gradient" id="Gradient_vkwgl"]
colors = PackedColorArray(0.4, 0.78, 1, 1, 0.783, 0.38, 1, 1)

[resource]
gradient = SubResource("Gradient_vkwgl")
fill_to = Vector2(1, 1)
